{"success":true,"data":[{"id":36,"title":"Test2039","category":"club","categoryLabel":"?대읇 ?뚯떇","date":"2026-07-02","content":"Test content body","author":"Test","image":null,"createdAt":"2026-07-02 23:29:56","updatedAt":"2026-07-02 23:29:56"},{"id":35,"title":"Test Title","category":"club","categoryLabel":"?대읇 ?뚯떇","date":"2026-07-02","content":"Test content","author":"Seoul Phoenix","image":null,"createdAt":"2026-07-02 23:29:48","updatedAt":"2026-07-02 23:29:48"},{"id":34,"title":"?뚯뒪??湲곗궗 ?쒕ぉ","category":"club","categoryLabel":"?대읇 ?뚯떇","date":"2026-07-02","content":"?뚯뒪??蹂몃Ц ?댁슜?낅땲?? ?щ윭 以꾨줈 ?묒꽦?⑸땲??","author":"?쒖슱?쇰땳??誘몃뵒??,"image":null,"createdAt":"2026-07-02 23:29:39","updatedAt":"2026-07-02 23:29:39"},{"id":33,"title":"[?ㅽ뵾?? ?쒖슱?쇰땳??FC ?ㅻ떎鍮? ?섎씪?ㅼ뒪 ?뷀렂??梨뷀뵾?멤??먯쫰??FC ?꾧꺽 ?댁쟻 7??7???⑸쪟","category":"club","categoryLabel":"?대읇 ?뚯떇","date":"2026-07-02","content":"?쒖슱?쇰땳??FC???듭떖 ?꾨젰 ?ㅻ떎鍮??좎닔媛 ?숇궓?꾩떆??異뺢뎄???덈줈??媛뺤옄濡??좎삤瑜??쇱삤???먯쫰??FC(Ezra FC)濡?臾대?瑜???릿??\r\n?쒖슱?쇰땳??FC??3??怨듭떇 諛쒗몴瑜??듯빐 \"????깆옣???④퍡?????ㅻ떎鍮??좎닔媛 ?쇱삤??1遺 由ш렇??紐낅Ц ?먯쫰??FC濡??댁쟻?섍쾶 ?섏뿀??"?쇰ŉ\r\n \"怨꾩빟 諛??댁쟻 ?꾨줈?몄뒪??紐⑤몢 留덈Т由щ릺?덉쑝硫? ?ㅻ떎鍮??좎닔???ㅻ뒗 7??7???먮줈 ?먯쫰??FC??怨듭떇 ?⑸쪟?쒕떎\"怨?諛앺삍??\r\n?ㅻ떎鍮덉씠 ???μ?瑜??몃뒗 ?먯쫰??FC???쒓뎅 異뺢뎄 ?щ뱾?먭쾶??移쒖닕??援щ떒?대떎. 吏??2003???쒓뎅??吏?꾩옄媛 ?쇱삤???꾩????ㅻ┰??寃껋쓣 ?쒖옉?쇰줈,\r\n ?꾪깂???좎뒪 ?쒖뒪?쒖쓣 援ъ텞?섎ŉ ?쇱삤??援????쒖쓽 ?곗떎濡??먮━ ?≪븯?? ?뱁엳 吏곸쟾 2024-2025?쒖쫵?먮뒗 ?섎퀝???쒓뎅??媛먮룆??吏???꾨옒 李쎈떒 泥?1遺 由ш렇 ?곗듅\r\n怨?FA而??곗듅???숈떆??嫄곕㉧伊먮ŉ ?쇱삤??理쒓컯??쇰줈 援곕┝?섍퀬 ?덈떎.  留먮젅?댁떆??A1由ш렇 臾대??먯꽌 留뱁솢?쏀븯硫??꾩떆??異뺢뎄怨꾩쓽 ?쒖꽑???щ줈?≪븯???ㅻ떎鍮덉?, \r\n?대쾲 ?댁쟻???듯빐 ?쒓뎅??吏?꾩옄 ?쒖뒪?쒖씠 ?꾨꼍???먮━ ?≪? ?먯쫰??FC?먯꽌 ?먯떊??湲곕웾?????④퀎 ??留뚭컻??湲고쉶瑜??↔쾶 ?먮떎.  \r\n?쒖슱?쇰땳??FC???먯쭊????쒕뒗 ????좊굹???ㅻ떎鍮??좎닔?먭쾶 吏꾩떖 ?대┛ 媛먯궗? ?묒썝??硫붿떆吏瑜?蹂대깉??\r\n?먯쭊???쒖슱?쇰땳??FC ???諛곗썒??"洹몃룞???쒖슱?쇰땳??FC???좊땲?쇱쓣 ?낃퀬 ?쇱튂 ?꾩뿉??紐⑤뱺 寃껋쓣 ?잛븘遺??以 ?ㅻ떎鍮??좎닔?먭쾶 源딆? 媛먯궗瑜??꾪빀?덈떎. \r\n?ㅻ떎鍮??좎닔???뚯떊怨??댁젙???덉뿀湲곗뿉 援щ떒???④퍡 ?깆옣?????덉뿀?듬땲?? 鍮꾨줉 紐몄? ?⑥뼱吏寃??섏뿀吏留? ?쇱삤??理쒓퀬??紐낅Ц 援щ떒???먯쫰??FC?먯꽌??\r\n?뱀쑀???깆떎?④낵 ??컻?곸씤 ?뚮젅?대줈 ?꾩떆??臾대?瑜?源쒖쭩 ??쇨쾶 ?섎━??誘우뼱 ?섏떖移??딆뒿?덈떎. ?ㅻ떎鍮??좎닔???욌궇?????곴킅怨?異뺣났??媛?앺븯湲곕? \r\n?쒖슱?쇰땳??FC??紐⑤뱺 援ъ꽦?먭낵 ?щ뱾????留덉쓬?쇰줈 湲곗썝?⑸땲?? 洹몃룞???뺣쭚 怨좎깮 留롮븯?듬땲??\"","author":"?쒖슱?쇰땳??誘몃뵒??,"image":"\/uploads\/news_20260702_223027_65a1eaa8.jpg","createdAt":"2026-07-02 22:14:38","updatedAt":"2026-07-02 22:30:31"},{"id":32,"title":"?쒖슱?쇰땳??FC, 2026-2027?쒖쫵 留먮젅?댁떆??A1由ш렇 李멸??숈쓽???쒖텧??\"?쒓뎅???щ졊??" ?좎엫 怨좎떖 以?,"category":"club","categoryLabel":"?대읇 ?뚯떇","date":"2026-07-02","content":"?쒖슱?쇰땳??FC媛 李④린 ?쒖쫵?먮룄 留먮젅?댁떆??臾대??먯꽌???꾩쟾???댁뼱媛???쒗렪, ????대걣 ?덈줈??'?쒓뎅??吏?꾩옄' ?좎엫 ?묒뾽??諛뺤감瑜?媛?섍퀬 ?덈떎.\r\n\r\n?쒖슱?쇰땳??FC???ㅺ??ㅻ뒗 2026-2027?쒖쫵 留먮젅?댁떆??A1 ?몃??꾨줈 由ш렇(Malaysia A1 Semi-Pro League) 李멸?瑜??꾪븳 怨듭떇 李멸??숈쓽?쒕? 理쒖쥌 ?쒖텧?덈떎怨?諛앺삍?? 吏??2025-2026?쒖쫵 ?깃났?곸쑝濡?由ш렇???덉갑?섎ŉ 援?궡 異뺢뎄怨꾩뿉 ?좎꽑??異⑷꺽??二쇱뿀???쒖슱?쇰땳??FC???대줈?????쒖쫵 ?곗냽 由ш렇 李멸?瑜??뺤젙 吏볤퀬 蹂멸꺽?곸씤 李④린 ?쒖쫵 援ъ긽???뚯엯?덈떎.\r\n\r\n?꾩옱 援щ떒??媛?????붾몢?????以묒떖???≪븘以??щ졊???좎엫?대떎. ?쒖슱?쇰땳??FC??李④린 ?쒖쫵???대걣 ?섏옣?쇰줈 ?쒓뎅??媛먮룆 ?좎엫??理쒖슦???쒖쐞???먭퀬 ?щ윭 ?꾨낫援곗쓣 ?좎쨷?섍쾶 寃?좏븯怨??덈뒗 寃껋쑝濡??뚮젮議뚮떎.\r\n\r\n?먯쭊???쒖슱?쇰땳??FC ??쒕뒗 李④린 ?쒖쫵 李멸? ?뺤젙 ?뚯떇怨??④퍡, ???諛⑺뼢?깆쓣 紐낇솗???댁쨪 吏?꾩옄 ?좎엫?????怨좎떖???꾪뻽??\r\n\r\n?먯쭊???쒖슱?쇰땳??FC ????명꽣酉?r\n\"吏??2025-2026?쒖쫵??留먮젅?댁떆??臾대???????곸쓳怨?媛?μ꽦???吏꾪븯???쒓린??ㅻ㈃, ?ㅺ??ㅻ뒗 2026-2027?쒖쫵? 蹂멸꺽?곸쑝濡??깃낵瑜??댁빞 ?섎뒗 以묒슂???쒓린?낅땲?? ?곕━ 援щ떒??泥좏븰?????댄빐?섍퀬, ?쒓뎅 異뺢뎄???좎쭊 ?쒖뒪?쒖쓣 留먮젅?댁떆???꾩????꾨꼍???댁떇?????덈뒗 ??웾 ?덈뒗 ?쒓뎅??媛먮룆 ?좎엫??怨좎떖 以묒엯?덈떎. 議곕쭔媛??좎엫 媛먮룆 ?좎엫??留덈Т由?吏볤퀬 ?좎닔??援ъ꽦怨?鍮꾩떆利??덈젴 怨꾪쉷??珥섏킌???꾧컻???섍?寃좎뒿?덈떎.\"\r\n\r\n'?쒓뎅???щ졊?? 移대뱶, 臾댁뾿???몃━??\r\n?쒖슱?쇰땳??FC媛 李④린 ?щ졊?묒쑝濡??쒓뎅??媛먮룆??怨좎쭛?섎뒗 ?댁쑀??援щ떒???뺤껜??諛??꾩? ?꾨왂怨?留욌떯???덈떎.\r\n\r\n?좎닔???μ븙 諛??좊쭩二??≪꽦: 援?궡 ?좊쭩二쇰뱾??二쇱텞?????좎닔?⑥쓽 ?뚰넻???먰솢???섍퀬, ?좎닔?ㅼ쓽 ?좎옱?μ쓣 ?뚯뼱?щ━湲??꾪빐?쒕뒗 ?쒓뎅??吏?꾩옄???뷀뀒?쇳븳 ?λ젰???꾩닔?곸씠?쇰뒗 ?먮떒?대떎.\r\n\r\n'K-異뺢뎄' 釉뚮옖?쒗솕: ?꾩옱 ?숇궓?꾩떆???꾩뿭??遺???쒓뎅??媛먮룆 ?댄뭾???댁뼱諛쏆븘, 留먮젅?댁떆???꾩??먯꽌 ?쒖슱?쇰땳??FC留뚯쓽 ?뺢퀬??'K-異뺢뎄' 釉뚮옖?쒕? 援ъ텞?섍퀬 ?щ뜡???뺤옣?섍쿋?ㅻ뒗 ?꾨왂?대떎.\r\n\r\n?깆쟻怨?泥댁쭏 媛쒖꽑: 泥??쒖쫵???곗씠?곕? 諛뷀깢?쇰줈 ?꾩? 湲고썑? 由ш렇 ?뱀꽦??理쒖쟻?붾맂 ?꾩닠??援ъ궗?????덈뒗 ?꾩닠媛瑜?珥덈튃?? 李④린 ?쒖쫵 ?곸쐞沅??꾩빟???뺤“以?쒕떎.\r\n\r\n?ν썑 ?쇱젙\r\n李멸??숈쓽???쒖텧??留덉튇 ?쒖슱?쇰땳??FC??留먮젅?댁떆??異뺢뎄?묓쉶(FAM)????됱젙 ?덉감瑜?諛잙뒗 ?숈떆?? ?좎엫 媛먮룆 ?좎엫 ?묒뾽??理쒖슦?좎쑝濡?留덈Т由ы븷 怨꾪쉷?대떎. 媛먮룆 ?좎엫???꾨즺?섎뒗 ?濡??좎닔???꾨젰 蹂닿컯怨?鍮꾩떆利??꾩??덈젴 ??2026-2027?쒖쫵???ν븳 ??μ젙??蹂멸꺽?곸쑝濡??뚯엯?섍쾶 ?쒕떎.\r\n\r\n怨쇨컧???꾩쟾?뺤떊?쇰줈 ?숇궓??臾대??먯꽌 ?낅낫?곸씤 湲몄쓣 嫄몄뼱媛怨??덈뒗 ?쒖슱?쇰땳??FC? ?먯쭊????쒓? ?대뼡 吏?꾩옄? ?먯쓣 ?↔퀬 李④린 ?쒖쫵???쒕씪留덈? ???대젮媛덉? 異뺢뎄怨꾩쓽 ?대ぉ???좊━怨??덈떎.","author":"?쒖슱?쇰땳??誘몃뵒??,"image":"\/uploads\/news_20260702_223418_26cb6d91.jpg","createdAt":"2026-07-02 21:55:18","updatedAt":"2026-07-02 22:34:22"},{"id":67,"title":"AFL, 媛먮룆 ?먭꺽 ?붽굔 ???媛뺥솕... AFC Pro Diploma ?꾩닔","category":"malaysia","categoryLabel":"留먮젅?댁떆??異뺢뎄","date":"2026-06-29","content":"?꾨쭏異붿뼱異뺢뎄?곕㏏(AFL)??2026-2027?쒖쫵遺??A1由ш렇 紐⑤뱺 援щ떒 媛먮룆??AFC Pro Diploma(Pro-A) 肄붿묶 ?쇱씠?좎뒪瑜??뚯??댁빞 ?쒕떎????吏移⑥쓣 諛쒗몴?덈떎. Perak FA ??媛?援щ떒?ㅼ? ??洹쒖젙??留욎떠 肄붿묶?ㅽ깭??援ъ꽦??蹂?붾? 以鍮?以묒씠??","author":"?쒖슱?쇰땳??誘몃뵒??,"image":null,"createdAt":"2026-07-02 23:35:18","updatedAt":"2026-07-02 23:35:18"},{"id":60,"title":"AFL, 媛먮룆 ?먭꺽 ?붽굔 ???媛뺥솕... AFC Pro Diploma ?꾩닔","category":"malaysia","categoryLabel":"留먮젅?댁떆??異뺢뎄","date":"2026-06-29","content":"?꾨쭏異붿뼱異뺢뎄?곕㏏(AFL)??2026-2027?쒖쫵遺??A1由ш렇 紐⑤뱺 援щ떒 媛먮룆??AFC Pro Diploma(Pro-A) 肄붿묶 ?쇱씠?좎뒪瑜??뚯??댁빞 ?쒕떎????吏移⑥쓣 諛쒗몴?덈떎. Perak FA ??媛?援щ떒?ㅼ? ??洹쒖젙??留욎떠 肄붿묶?ㅽ깭??援ъ꽦??蹂?붾? 以鍮?以묒씠??","author":"?쒖슱?쇰땳??誘몃뵒??,"image":null,"createdAt":"2026-07-02 23:34:34","updatedAt":"2026-07-02 23:34:34"},{"id":54,"title":"AFL, 媛먮룆 ?먭꺽 ?붽굔 ???媛뺥솕... AFC Pro Diploma ?꾩닔","category":"malaysia","categoryLabel":"留먮젅?댁떆??異뺢뎄","date":"2026-06-29","content":"?꾨쭏異붿뼱異뺢뎄?곕㏏(AFL)??2026-2027?쒖쫵遺??A1由ш렇 紐⑤뱺 援щ떒 媛먮룆??AFC Pro Diploma(Pro-A) 肄붿묶 ?쇱씠?좎뒪瑜??뚯??댁빞 ?쒕떎????吏移⑥쓣 諛쒗몴?덈떎. Perak FA ??媛?援щ떒?ㅼ? ??洹쒖젙??留욎떠 肄붿묶?ㅽ깭??援ъ꽦??蹂?붾? 以鍮?以묒씠??","author":"?쒖슱?쇰땳??誘몃뵒??,"image":null,"createdAt":"2026-07-02 23:33:41","updatedAt":"2026-07-02 23:33:41"},{"id":48,"title":"AFL, 媛먮룆 ?먭꺽 ?붽굔 ???媛뺥솕... 'AFC Pro Diploma' ?꾩닔","category":"malaysia","categoryLabel":"留먮젅?댁떆??異뺢뎄","date":"2026-06-29","content":"?꾨쭏異붿뼱異뺢뎄?곕㏏(AFL)??2026-2027?쒖쫵遺??A1由ш렇 紐⑤뱺 援щ떒??媛먮룆??AFC Pro Diploma(Pro-A) 肄붿묶 ?쇱씠?좎뒪瑜??뚯??댁빞 ?쒕떎????吏移⑥쓣 諛쒗몴?덈떎. ?댁뿉 ?곕씪 Perak FA(PAFA)??Pro-A ?먭꺽??媛뽰텣 ??媛먮룆 臾쇱깋???섏꽣?쇰ŉ 援щ떒?ㅼ? 肄붿묶?ㅽ깭??援ъ꽦??蹂?붽? 遺덇??쇳빐議뚮떎. ?쒖슱?쇰땳?짦C ??떆 李④린 媛먮룆 ?좎엫 ?????먭꺽 ?붽굔??異⑹”?댁빞 ?쒕떎.","author":"?쒖슱?쇰땳??誘몃뵒??,"image":null,"createdAt":"2026-07-02 23:32:40","updatedAt":"2026-07-02 23:32:40"},{"id":25,"title":"?⑤룆 ?명꽣酉? ?꾧린???곕꼸 ?? ?먯쭊??援щ떒二쇨? 諛앺엺 2026-2027 ?쒖쫵???쎌냽","category":"interview","categoryLabel":"?명꽣酉?,"date":"2026-06-28","content":"\"?댁텧?ㅼ씠 ?뚮뜕 洹?諛? ?좎쓣 ?대（吏 紐삵뻽?듬땲?? ?섏?留??댁젣 ?щ뱾?먭쾶 鍮싳쓣 媛싳쓣 ?쒓컙?낅땲?? ?곕━??紐⑺몴???⑥닚???앹〈???꾨땶, ?곸쐞 ?꾨━誘몄뼱由ш렇 吏꾩텧?낅땲??\"\r\n\r\n吏???쒖쫵, ??????대쫫 ?욎뿉???몄젣??'?뷀샊???쇰뒗 ?섏떇?닿? 遺숈뿀?듬땲?? ?섏옣??A媛먮룆怨쇱쓽 ?뚯씠?????녿뒗 留덉같, 誘우뿀??硫붿씤 ?ㅽ룿?쒖쓽 ?쇰갑?곸씤 怨꾩빟 誘몄씠?됱쑝濡??명븳 ?ъ젙 ?뺣컯, 洹몃━怨?湲됯린???ㅻ젮??'由ш렇 ?댁텧??源뚯?. 援щ떒??議대┰ ?먯껜媛 ?붾뱾?몃뜕 ?ㅼ궗?ㅻ궃???쒓컙???ы뙆??2026???꾩옱源뚯???吏숈? 洹몃┝?먮? ?④린怨??덉뒿?덈떎.\r\n\r\n?섏?留?2026-2027 ?쒖쫵???욌몦 ?먯쭊??援щ떒二쇱쓽 ?덈튆? ?⑤같媛?????낃린濡?媛??李??덉뿀?듬땲?? 湲?移⑤У??源④퀬 留덉씠???욎뿉 ??洹몄뿉寃?吏???쒖쫵???꾪뵒怨??욎쑝濡쒖쓽 諛섍꺽 ?쒖궗?????臾쇱뿀?듬땲??\r\n\r\nQ. 吏???쒖쫵? 援щ떒 ??궗??媛??媛?뱁븳 ?쒓컙?댁뿀?? 吏湲덇퉴吏??洹??ы뙆媛 ?댁뼱吏怨??덈뒗?? 援щ떒二쇰줈???ш꼍???대븷??\r\n?먯쭊??援щ떒二?: \"???щ뒗 寃껋“李?怨좏넻?ㅻ윭???쒓컙?댁뿀?듬땲?? ?대??곸쑝濡쒕뒗 A媛먮룆怨쇱쓽 泥좏븰 李⑥씠濡??명븳 留덉같???몃?濡?遺덇굅吏硫??좎닔???붾뱾由쇱씠 ?ы뻽怨? ?몃??곸쑝濡쒕뒗 ?ㅽ룿?쒖쓽 怨꾩빟 誘몄씠?됱씠?쇰뒗 ????낆옱媛 ?곗죱二? ?먭툑??臾띠씠???뱀옣 ?좎닔??湲됱뿬遺??援щ떒 ?댁쁺鍮꾧퉴吏 紐⑤뱺 寃?留덈퉬?먯뒿?덈떎.\r\n\r\n湲됯린??'?ъ젙 嫄댁쟾??誘몃떖濡?由ш렇?먯꽌 ?댁텧?뱁븷 ???덈떎'???댁뒪源뚯? ?섏솕???뚮뒗 ?뺣쭚 踰쇰옉 ?앹뿉 ??湲곕텇?댁뿀?듬땲?? 援щ떒二쇰줈??梨낆엫???듦컧?섎ŉ, 吏湲덇퉴吏??洹?臾닿굅???ы뙆瑜??섏뒿?섍린 ?꾪빐 留ㅼ씪 諛ㅻ궙?쇰줈 ?곌퀬 ?덉뒿?덈떎. 臾댁뾿蹂대떎 媛???곸쿂諛쏆븯???щ텇?ㅺ퍡 怨좉컻瑜??????놁뿀?듬땲??\"\r\n\r\nQ. A媛먮룆怨쇱쓽 媛덈벑, 洹몃━怨??ㅽ룿?쒖떗 ?뚰뻾??援ъ껜?곸씤 ?섏뒿 ?곹솴? ?대뼸寃??섏뼱媛怨??덈굹.\r\n?먯쭊??援щ떒二?: \"A媛먮룆 嫄댁뿉 ??댁꽌???쒕줈媛 吏?ν븯??諛⑺뼢???щ옄??留뚰겮, ?쒕줈??誘몃옒瑜??꾪빐 ?뺣━瑜?留덉낀?듬땲?? 怨쇱젙??留ㅻ걚?쎌? 紐삵빐 ?щ뱾猿??쇰줈媛먯쓣 ?쒕┛ ?먯? ?ㅼ떆 ?쒕쾲 ?ш낵?쒕┰?덈떎. ?ㅽ룿?쒖떗 誘몄씠??臾몄젣??踰뺤쟻???덉감? ?숈떆?? 援щ떒??媛移섎? 誘우뼱二쇰뒗 ?덈줈???뚰듃?덉궗?ㅺ낵 湲대??섍쾶 ?묒큺?섎ŉ ?ъ젙 ?뺤긽?붾? 理쒖슦??怨쇱젣濡??닿껐 以묒엯?덈떎. ?꾨꼍?섏쭊 ?딆?留? 理쒖븙???곕꼸? 鍮좎졇?섏솕?ㅺ퀬 媛먰엳 留먯??쒕┫ ???덉뒿?덈떎.\"\r\n\r\nQ. ?ㅺ??ㅻ뒗 2026-2027 ?쒖쫵???꾪븯??媛곸삤媛 ?⑤떎瑜?寃?媛숇떎. ?대쾲 ?쒖쫵??援ъ껜?곸씤 紐⑺몴??臾댁뾿?멸?.\r\n?먯쭊??援щ떒二?: \"?대쾲 ?쒖쫵 ?곕━??紐⑦넗??'由щ컮?대뱶(Rebound), ?ㅼ떆 ????ㅻⅤ??寃??낅땲?? ?⑥닚???섏쐞 由ш렇??A1由ш렇?먯꽌 ?곷떦??以묒쐞沅뚯쓣 ?좎??섎ŉ ?덉＜???앷컖? 異뷀샇???놁뒿?덈떎.\r\n\r\n?곕━??吏꾩쭨 臾대????ш린媛 ?꾨떃?덈떎. 2026-2027 ?쒖쫵, 紐⑤뱺 ??웾???잛븘遺???곸쐞 ?꾨━誘몄뼱由ш렇 ?밴꺽(吏꾩텧)???대쨪??寃껋엯?덈떎. ?쒖뒪?쒖쓣 ?꾨㈃ 媛쒗렪?덇퀬, ?ㅼ쭅 '?닿린??異뺢뎄(?뱀? 寃뚯엫)', 洹몃━怨?'?щ뱾???먮옉?ㅻ윭?뚰븷 留뚰븳 援щ떒'??留뚮뱾湲??꾪빐 紐⑤뱺 嫄?諛붽? ?덉젙?낅땲??\"\r\n\r\nQ. 留덉?留됱쑝濡??ъ쟾??援щ떒??誘욧퀬 吏吏??二쇰뒗 ?щ뱾?먭쾶 ??留덈뵒 遺?곹븳??\r\n?먯쭊??援щ떒二?: \"????댁껜?좎???紐⑤Ⅸ?ㅻ뒗 ?됲쓨???뚮Ц ?띿뿉?쒕룄 ?앷퉴吏 ?좊땲?쇱쓣 ?낃퀬 寃쎄린?μ쓣 李얠븘? 二쇱떊 ?щ뱾???덈Ъ??湲곗뼲?⑸땲?? 援щ떒二쇱씤 ?쒓? 議댁옱?????덈뒗 ?댁쑀???ㅼ쭅 ???щ윭遺??뺣텇?낅땲??\r\n\r\n洹??덈Ъ??諛섎뱶???섑씗濡?諛붽퓭?볤쿋?듬땲?? 鍮꾧? ???ㅼ뿉 ?낆씠 ??援녹뼱吏꾨떎??寃껋쓣 利앸챸??蹂댁씠寃좎뒿?덈떎. ?대쾲 ?쒖쫵, ?곸쐞 ?꾨━誘몄뼱由ш렇濡??밸떦??嫄몄뼱 ?щ씪媛??援щ떒??諛섍꺽 ?쒖궗瑜??④퍡 吏耳쒕킄 二쇱떗?쒖삤. ?ㅻ쭩?섍쾶 ???쒕━吏 ?딄쿋?듬땲?? 媛먯궗?⑸땲??\"","author":"?쒖슱?쇰땳??誘몃뵒??,"image":"\/uploads\/news_20260702_225504_c24dd803.jpg","createdAt":"2026-06-28 23:51:56","updatedAt":"2026-07-02 22:55:08"}],"pagination":{"page":2,"limit":10,"total":60,"totalPages":6,"hasNext":true,"hasPrev":true}}
