{"success":true,"data":[{"id":50,"title":"MFL쨌AFL 2026-2027?쒖쫵 ?쇱씠?좎뒪 ?ъ궗, 7媛?援щ떒 ?듦낵","category":"malaysia","categoryLabel":"留먮젅?댁떆??異뺢뎄","date":"2026-05-01","content":"留먮젅?댁떆??異뺢뎄 由ш렇(MFL) 諛??꾨쭏異붿뼱異뺢뎄?곕㏏(AFL)??2026-2027?쒖쫵???욌몢怨?吏꾪뻾???대읇 ?쇱씠?좎뒪 理쒖쥌 ?ъ궗?먯꽌 7媛?援щ떒??湲고븳 ???붽굔??異⑹”?덈떎. ?ъ궗???ъ젙 ?덉젙?? ?명봽?? ?됱젙 ??웾 ?깆씠 ?됯??먯쑝硫??ы빐遺??媛먮룆 ?먭꺽 ?붽굔(AFC Pro Diploma)???덈줈 ?ы븿?먮떎.","author":"?쒖슱?쇰땳??誘몃뵒??,"image":null,"createdAt":"2026-07-02 23:33:41","updatedAt":"2026-07-02 23:33:41"},{"id":44,"title":"MFL쨌AFL 2026-2027?쒖쫵 ?쇱씠?좎뒪 ?ъ궗, 7媛?援щ떒 ?듦낵","category":"malaysia","categoryLabel":"留먮젅?댁떆??異뺢뎄","date":"2026-05-01","content":"留먮젅?댁떆??異뺢뎄 由ш렇(MFL) 諛??꾨쭏異붿뼱異뺢뎄?곕㏏(AFL)??2026-2027?쒖쫵???욌몢怨?吏꾪뻾???대읇 ?쇱씠?좎뒪 理쒖쥌 ?ъ궗?먯꽌 7媛?援щ떒??湲고븳 ???붽굔??異⑹”?덈떎. ?ъ궗???ъ젙 ?덉젙?? ?명봽?? ?됱젙 ??웾 ?깆씠 ?됯??먯쑝硫??ы빐遺??媛먮룆 ?먭꺽 ?붽굔(AFC Pro Diploma)???덈줈 ?ы븿?먮떎. ?쇱씠?좎뒪瑜??듦낵?섏? 紐삵븳 援щ떒?ㅼ? 異붽? ?쒕쪟 ?쒖텧 諛??곗옣 ?ъ궗瑜??붿껌???곹깭??","author":"?쒖슱?쇰땳??誘몃뵒??,"image":null,"createdAt":"2026-07-02 23:32:18","updatedAt":"2026-07-02 23:32:18"},{"id":40,"title":"MFL쨌AFL 2026-2027?쒖쫵 ?쇱씠?좎뒪 ?ъ궗, 7媛?援щ떒 ?듦낵","category":"malaysia","categoryLabel":"留먮젅?댁떆??異뺢뎄","date":"2026-05-01","content":"留먮젅?댁떆??異뺢뎄 由ш렇(MFL) 諛??꾨쭏異붿뼱異뺢뎄?곕㏏(AFL)??2026-2027?쒖쫵???욌몢怨?吏꾪뻾???대읇 ?쇱씠?좎뒪 理쒖쥌 ?ъ궗?먯꽌 7媛?援щ떒??湲고븳 ???붽굔??異⑹”?덈떎.\n\n?ъ궗???ъ젙 ?덉젙?? ?명봽?? ?됱젙 ??웾 ?깆씠 ?됯??먮떎. ?ы빐遺??媛먮룆 ?먭꺽 ?붽굔(AFC Pro Diploma)???덈줈 ?ы븿?먮떎.\n\n?쇱씠?좎뒪瑜??듦낵?섏? 紐삵븳 援щ떒?ㅼ? 異붽? ?쒕쪟 ?쒖텧 諛??곗옣 ?ъ궗瑜??붿껌???곹깭??","author":"?쒖슱?쇰땳??誘몃뵒??,"image":null,"createdAt":"2026-07-02 23:31:46","updatedAt":"2026-07-02 23:31:46"},{"id":15,"title":"?쒖슱?쇰땳?? KDA FC ?곷?濡??쒖쫵 理쒕떎 6怨???컻! 6-1 ???,"category":"club","categoryLabel":"?대읇 ?뚯떇","date":"2026-02-15","content":"?쒖슱?쇰땳??FC媛 2??15???먯젙 寃쎄린?먯꽌 KDA FC瑜?6-1濡???뚰븯硫??쒖쫵 理쒕떎 ?앹젏 ?밸━瑜?湲곕줉?덈떎.\n\n[異쒖쿂: Sofascore \/ top-esport.com]","author":"?쒖슱?쇰땳??誘몃뵒??,"image":null,"createdAt":"2026-06-03 17:34:01","updatedAt":"2026-06-03 17:34:01"},{"id":2,"title":"?먯쭊??援щ떒二? \"??留먮젅?댁떆??異뺢뎄 援먮쪟 ?뺣???寃?"","category":"interview","categoryLabel":"?명꽣酉?,"date":"2026-02-15","content":"?쒖슱?쇰땳???먯쭊??援щ떒二쇨? ?쒓뎅怨?留먮젅?댁떆??異뺢뎄 諛쒖쟾???꾪븳 鍮꾩쟾怨??ν썑 怨꾪쉷??諛쒗몴?덉뒿?덈떎.\r\n\r\n[李멸퀬: ?꾪궎?쇰뵒??\/ ?ㅽ룷痢좎“??","author":"?쒖슱?쇰땳??誘몃뵒??,"image":"\/uploads\/news_20260702_230924_f49ad207.jpg","createdAt":"2026-06-03 17:34:01","updatedAt":"2026-07-02 23:09:31"},{"id":19,"title":"留먮젅?댁떆???덊띁由ш렇 2025-2026 ?쒖쫵 媛쒕쭑??12媛?? ?곗듅 寃쎌웳","category":"malaysia","categoryLabel":"留먮젅?댁떆??異뺢뎄","date":"2026-01-15","content":"留먮젅?댁떆???덊띁由ш렇 2025-2026 ?쒖쫵??蹂멸꺽?곸쑝濡??쒖옉?먮떎.\r\n\r\n???쒖쫵?먮뒗 12媛????李멸??섎ŉ, 媛??? 24寃쎄린瑜?移섎Ⅴ寃??쒕떎. 吏???쒖쫵 梨뷀뵾??議고샇瑜??ㅻ０ ?곸쭚(JDT)? 5?고뙣???꾩쟾?섎ŉ, ??묎퀬瑜?FC, KEDAH FA, ?몃젅?媛??FC ?깆씠 ?곗듅 ?꾨낫濡?瑗쏀엳怨??덈떎.\r\n\r\n留먮젅?댁떆??異뺢뎄 ?고삊(FAM)? \"???쒖쫵 ?멸뎅???좎닔 ?쒗븳??媛뺥솕?섎㈃??援?궡 ?좎닔?ㅼ쓽 ?깆옣??湲곕??쒕떎\"怨?諛앺삍?? ?뱁엳 25???댄븯 ?좎닔 異쒖쟾 ?섎Т???쒕룄媛 ?쒗뻾?섎㈃???좎냼???좎닔?ㅼ쓽 ?쒖빟??二쇰ぉ?쒕떎.\r\n\r\n?쒓뎅 ?좎닔?ㅼ쓽 李멸????덉뿉 ?덈떎. ?쒖슱?쇰땳??FC媛 A1 Semi-Pro League?먯꽌 ?쒖빟?섍퀬 ?덉쑝硫? 留먮젅?댁떆??1遺 由ш렇?먮룄 ?쒓뎅??媛먮룆怨??좎닔?ㅼ씠 ?ㅼ닔 吏꾩텧???덈떎.\r\n\r\n?쒖쫵? 2026??1?붾???8?붽퉴吏 吏꾪뻾?섎ŉ, ?곸쐞 4媛??? AFC 梨뷀뵾?몄뒪由ш렇 吏꾩텧 ?먭꺽???산쾶 ?쒕떎.\r\n\r\n[異쒖쿂: 留먮젅?댁떆??異뺢뎄 ?고삊(FAM) \/ AiScore]","author":"?쒖슱?쇰땳??誘몃뵒??,"image":"\/uploads\/news_20260702_224908_cdfee270.png","createdAt":"2026-06-04 23:54:35","updatedAt":"2026-07-02 22:49:11"},{"id":16,"title":"?쒖슱?쇰땳?? ?댁긽吏?媛먮룆 ?꾧꺽 寃쎌쭏??Ariff Hashim ?좎엫 媛먮룆 ?좎엫","category":"club","categoryLabel":"?대읇 ?뚯떇","date":"2026-01-15","content":"?쒖슱?쇰땳??FC媛 珥덈? 媛먮룆 ?댁긽吏꾩쓣 ?꾧꺽 寃쎌쭏?섍퀬, Ariff Hashim???좎엫 ?ㅻ뱶肄붿튂濡??좎엫?덈떎.\r\n\r\n[異쒖쿂: ?쒖슱?쇰땳??誘몃뵒??","author":"?쒖슱?쇰땳??誘몃뵒??,"image":"\/uploads\/news_20260702_224454_ac75d62b.jpg","createdAt":"2026-06-03 17:34:01","updatedAt":"2026-07-02 22:44:58"},{"id":23,"title":"A1 ?몃??꾨줈 由ш렇 2025-2026 ?쒖쫵, ?쒖슱?쇰땳??泥??댁쇅 ?꾩쟾","category":"malaysia","categoryLabel":"留먮젅?댁떆??異뺢뎄","date":"2026-01-10","content":"留먮젅?댁떆??A1 ?몃??꾨줈 由ш렇(AFL) 2025-2026 ?쒖쫵??吏??1??媛쒕쭑?덈떎. ?ы빐???뱁엳 ?쒓뎅 異뺢뎄??理쒖큹濡?留먮젅?댁떆??由ш렇??吏꾩텧???쒖슱?쇰땳??FC??李멸?媛 ??二쇰ぉ??諛쏄퀬 ?덈떎.\r\n\r\nA1 ?몃??꾨줈 由ш렇??留먮젅?댁떆??異뺢뎄 由ш렇 ?쒖뒪?쒖쓽 2遺 由ш렇濡? 珥?19媛????李멸??쒕떎. ?쒖슱?쇰땳?ㅻ뒗 ?ъ씠踰꾩옄??Cyberjaya)瑜??곌퀬吏濡??섎ŉ, MMU ?ㅽ??붿?????援ъ옣?쇰줈 ?ъ슜?섍퀬 ?덈떎.\r\n\r\n?쒖슱?쇰땳?ㅻ뒗 留먮젅?댁떆??AFL怨쇱쓽 ?뱀빟???듯빐 怨듭떇 寃쎄린???쒓뎅 ?좎닔 7紐낃퉴吏 異쒖쟾?????덈뒗 ?낇듅??吏?꾨? ?뺣낫?덈떎. ?대뒗 ?쒓뎅怨?留먮젅?댁떆??異뺢뎄 援먮쪟???덈줈???μ쓣 ?щ뒗 ?섎? ?덈뒗 吏꾩쟾?쇰줈 ?됯??쒕떎.\r\n\r\n?쒖쫵? 2026??1?붾???8?붽퉴吏 吏꾪뻾?섎ŉ, ?곸쐞 ?? 留먮젅?댁떆???덊띁由ш렇濡쒖쓽 ?밴꺽 湲고쉶瑜??삳뒗??\r\n\r\n[異쒖쿂: AFL 怨듭떇 \/ ?쒖슱?쇰땳??誘몃뵒??","author":"?쒖슱?쇰땳??誘몃뵒??,"image":"\/uploads\/news_20260702_224423_7ce13563.jpg","createdAt":"2026-06-05 00:14:33","updatedAt":"2026-07-02 22:44:27"},{"id":20,"title":"??묎퀬瑜?FC, 源?먭낀 媛먮룆 ?좎엫??\"10??留뚯쓽 由ш렇 ?곗듅 ?꾩쟾\"","category":"malaysia","categoryLabel":"留먮젅?댁떆??異뺢뎄","date":"2026-01-06","content":"??묎퀬瑜?FC媛 2026??1??5?? 源?먭낀 媛먮룆(55)?????щ졊?묒쑝濡?怨듭떇 ?좎엫?덈떎.\n\n吏?쒗빐 K由ш렇1 ?몄궛HD?먯꽌 寃쎌쭏??源 媛먮룆? 5媛쒖썡 留뚯뿉 ?꾩옣?쇰줈 蹂듦??섎ŉ, 留먮젅?댁떆??臾대??먯꽌 ?ш린瑜??몃┛?? 源 媛먮룆? 2018???몄궛HD 媛먮룆 遺???댄썑 2019??FA而??곗듅, 2022??K由ш렇1 以?곗듅 ???붾젮??吏?꾨젰?쇰줈 ???뚮젮???덈떎.\n\n??묎퀬瑜?FC??\"源?먭낀 媛먮룆???띾???寃쏀뿕怨?吏?꾨젰??????붿슧 ?믪? ?④퀎濡??대걣??以?寃껋씠???뺤떊?쒕떎\"怨?湲곕?媛먯쓣 ?쒗뻽?? ?댁뼱 \"源 媛먮룆? ?꾩떆??異뺢뎄?????源딆? ?댄빐? ?④퍡 ?좎닔?ㅼ쓽 ?좎옱?μ쓣 理쒕????뚯뼱?대뒗 ???곸썡???λ젰??媛뽰텛怨??덈떎\"怨??㏓텤???\n\n源 媛먮룆? 痍⑥엫 ?뚭컧?먯꽌 \"援щ떒???⑸쪟?섍린濡?????寃곗젙? ???鍮꾩쟾怨??뚯떊??????뺤떊??湲곕컲?쒕떎\"硫?\"??묎퀬瑜댁쓽 紐⑺몴? 鍮꾩쟾? 媛먮룆?쇰줈???닿? ?덇퀬 ?덈뒗 ?대쭩怨쇰룄 ?쇱튂?쒕떎\"怨?諛앺삍??\n\n??묎퀬瑜?FC??2025-2026 ?쒖쫵 留먮젅?댁떆???덊띁由ш렇?먯꽌 10??留뚯쓽 由ш렇 ?곗듅??紐⑺몴濡??섍퀬 ?덉쑝硫? 源 媛먮룆???대걚???꾨떞 肄붿묶 ?ㅽ깭?꾩? ?④퍡 蹂멸꺽?곸씤 ?쒖쫵 以鍮꾩뿉 ?뚯엯?덈떎.\n\n[異쒖쿂: ?댁뒪1 \/ ?고빀?댁뒪 \/ 留먮젅?댁떆???щ옉?ㅻⅤ FC 怨듭떇 諛쒗몴]","author":"?쒖슱?쇰땳??誘몃뵒??,"image":null,"createdAt":"2026-06-04 23:54:35","updatedAt":"2026-06-04 23:54:35"},{"id":3,"title":"?쒖슱?쇰땳?? Kota Kemuning City FC???移쒖꽑?꾩꽌 2-0 ?밸━","category":"club","categoryLabel":"?대읇 ?뚯떇","date":"2026-01-06","content":"?쒖슱?쇰땳?ㅺ? 2026???덊빐 泥?移쒖꽑 ?좊꼫癒쇳듃?먯꽌 Kota Kemuning City FC瑜?2-0?쇰줈 寃⑺뙆?덉뒿?덈떎.\n\n[異쒖쿂: Wikipedia - Seoul Phoenix FC]","author":"?쒖슱?쇰땳??誘몃뵒??,"image":null,"createdAt":"2026-06-03 17:34:01","updatedAt":"2026-06-03 17:34:01"}],"pagination":{"page":5,"limit":10,"total":60,"totalPages":6,"hasNext":true,"hasPrev":true}}
