{"success":true,"data":[{"id":64,"title":"2026-2027 A1由ш렇, 8??媛쒕쭑 ?뺤젙... ?꾨━?쒖쫵 7??以묒닚 ?쒖옉","category":"malaysia","categoryLabel":"留먮젅?댁떆??異뺢뎄","date":"2026-05-28","content":"2026-2027?쒖쫵 留먮젅?댁떆??A1 ?몃??꾨줈由ш렇(AFL)媛 ?ㅻ뒗 8??媛쒕쭑?쒕떎. 媛?援щ떒?ㅼ? 7??以묒닚遺??蹂멸꺽?곸씤 ?꾨━?쒖쫵 ?덈젴???뚯엯?쒕떎. ?대쾲 ?쒖쫵遺??AFL????媛먮룆 ?먭꺽 ?붽굔(AFC Pro Diploma)???곸슜?쒕떎.","author":"?쒖슱?쇰땳??誘몃뵒??,"image":null,"createdAt":"2026-07-02 23:35:18","updatedAt":"2026-07-02 23:35:18"},{"id":57,"title":"2026-2027 A1由ш렇, 8??媛쒕쭑 ?뺤젙... ?꾨━?쒖쫵 7??以묒닚 ?쒖옉","category":"malaysia","categoryLabel":"留먮젅?댁떆??異뺢뎄","date":"2026-05-28","content":"2026-2027?쒖쫵 留먮젅?댁떆??A1 ?몃??꾨줈由ш렇(AFL)媛 ?ㅻ뒗 8??媛쒕쭑?쒕떎. 媛?援щ떒?ㅼ? 7??以묒닚遺??蹂멸꺽?곸씤 ?꾨━?쒖쫵 ?덈젴???뚯엯?쒕떎. ?대쾲 ?쒖쫵遺??AFL????媛먮룆 ?먭꺽 ?붽굔(AFC Pro Diploma)???곸슜?쒕떎.","author":"?쒖슱?쇰땳??誘몃뵒??,"image":null,"createdAt":"2026-07-02 23:34:33","updatedAt":"2026-07-02 23:34:33"},{"id":51,"title":"2026-2027 A1由ш렇, 8??媛쒕쭑 ?뺤젙... ?꾨━?쒖쫵 7??以묒닚 ?쒖옉","category":"malaysia","categoryLabel":"留먮젅?댁떆??異뺢뎄","date":"2026-05-28","content":"2026-2027?쒖쫵 留먮젅?댁떆??A1 ?몃??꾨줈由ш렇(AFL)媛 ?ㅻ뒗 8??媛쒕쭑?쒕떎. 媛?援щ떒?ㅼ? 7??以묒닚遺??蹂멸꺽?곸씤 ?꾨━?쒖쫵 ?덈젴???뚯엯?쒕떎. ?대쾲 ?쒖쫵遺??AFL????媛먮룆 ?먭꺽 ?붽굔(AFC Pro Diploma)???곸슜?쒕떎.","author":"?쒖슱?쇰땳??誘몃뵒??,"image":null,"createdAt":"2026-07-02 23:33:41","updatedAt":"2026-07-02 23:33:41"},{"id":45,"title":"2026-2027 A1由ш렇, 8??媛쒕쭑 ?뺤젙... ?꾨━?쒖쫵 7??以묒닚 ?쒖옉","category":"malaysia","categoryLabel":"留먮젅?댁떆??異뺢뎄","date":"2026-05-28","content":"2026-2027?쒖쫵 留먮젅?댁떆??A1 ?몃??꾨줈由ш렇(AFL)媛 ?ㅻ뒗 8??媛쒕쭑?쒕떎. 媛?援щ떒?ㅼ? 7??以묒닚遺??蹂멸꺽?곸씤 ?꾨━?쒖쫵 ?덈젴???뚯엯?쒕떎. ?대쾲 ?쒖쫵遺??AFL????媛먮룆 ?먭꺽 ?붽굔(AFC Pro Diploma)???곸슜?쒕떎. 吏???쒖쫵 15媛?? 泥댁젣濡??댁쁺??A1由ш렇?????쒖쫵?먮룄 鍮꾩듂??洹쒕え濡??댁쁺???꾨쭩?대ŉ 援ъ껜?곸씤 寃쎄린 ?쇱젙? 異뷀썑 諛쒗몴 ?덉젙?대떎.","author":"?쒖슱?쇰땳??誘몃뵒??,"image":null,"createdAt":"2026-07-02 23:32:18","updatedAt":"2026-07-02 23:32:18"},{"id":41,"title":"2026-2027 A1由ш렇, 8??媛쒕쭑 ?뺤젙... ?꾨━?쒖쫵 7??以묒닚 ?쒖옉","category":"malaysia","categoryLabel":"留먮젅?댁떆??異뺢뎄","date":"2026-05-28","content":"2026-2027?쒖쫵 留먮젅?댁떆??A1 ?몃??꾨줈由ш렇(AFL)媛 ?ㅻ뒗 8??媛쒕쭑?쒕떎. 媛?援щ떒?ㅼ? 7??以묒닚遺??蹂멸꺽?곸씤 ?꾨━?쒖쫵 ?덈젴???뚯엯?쒕떎.\n\n?대쾲 ?쒖쫵遺??AFL????媛먮룆 ?먭꺽 ?붽굔(AFC Pro Diploma)???곸슜?쒕떎. 吏???쒖쫵 15媛?? 泥댁젣濡??댁쁺??A1由ш렇?????쒖쫵?먮룄 鍮꾩듂??洹쒕え濡??댁쁺???꾨쭩?대떎.","author":"?쒖슱?쇰땳??誘몃뵒??,"image":null,"createdAt":"2026-07-02 23:31:46","updatedAt":"2026-07-02 23:31:46"},{"id":1,"title":"?쒖슱?쇰땳?? Kedah FA??0-3 ?앺뙣??泥?A1 由ш렇 ?쒖쫵 留덈Т由?,"category":"club","categoryLabel":"?대읇 ?뚯떇","date":"2026-05-23","content":"?쒖슱?쇰땳??FC媛 2025-26?쒖쫵 A1 Semi-Pro League 理쒖쥌?꾩뿉??Kedah FA??0-3?쇰줈 ?⑤같?섎ŉ 泥??댁쇅 吏꾩텧 ?쒖쫵??留덈Т由ы뻽??\n\n?대궇 寃쎄린?먯꽌 ?쒖슱?쇰땳?ㅻ뒗 ?꾨컲?먮쭔 2怨⑥쓣 ?덉슜?섎ŉ ?대젮??寃쎄린瑜??쇱낀?? ?꾨컲?먮룄 異붽? ?ㅼ젏??留됱? 紐삵븯硫?寃곌뎅 3??李??⑤같瑜?湲곕줉?덈떎.\n\nRedScores ?듦퀎???곕Ⅴ硫??쒖슱?쇰땳?ㅻ뒗 ?쒖쫵 珥?25寃쎄린?먯꽌 3??4臾?18?⑤? 湲곕줉?덉쑝硫? 由ш렇 19媛?? 以?13?꾨줈 泥??쒖쫵??留덇컧?덈떎.\n\n[異쒖쿂: RedScores \/ Global Sports Archive]","author":"?쒖슱?쇰땳??誘몃뵒??,"image":null,"createdAt":"2026-06-03 17:34:01","updatedAt":"2026-06-03 17:34:01"},{"id":14,"title":"?쒖슱?쇰땳?? Perlis GSA??3-1 苡뚯듅??2026??泥??밸━ ?좉퀬","category":"club","categoryLabel":"?대읇 ?뚯떇","date":"2026-05-16","content":"?쒖슱?쇰땳??FC媛 5??16????寃쎄린?먯꽌 Perlis GSA FC瑜?3-1濡?寃⑺뙆?섎ŉ 2026??A1 Semi-Pro League 泥??밸━瑜??좉퀬?덈떎.\n\n?꾨컲 15遺??좎젣怨⑥쓣 ?쒖옉?쇰줈 ?쒖슱?쇰땳?ㅻ뒗 寃쎄린 ?대궡 二쇰룄沅뚯쓣 ?볦? ?딆븯??\n\n[異쒖쿂: top-esport.com]","author":"?쒖슱?쇰땳??誘몃뵒??,"image":null,"createdAt":"2026-06-03 17:34:01","updatedAt":"2026-06-03 17:34:01"},{"id":68,"title":"Article1","category":"malaysia","categoryLabel":"留먮젅?댁떆??異뺢뎄","date":"2026-05-01","content":"Test content 1","author":"Test","image":"","createdAt":"2026-07-02 23:35:49","updatedAt":"2026-07-02 23:35:49"},{"id":63,"title":"MFL쨌AFL 2026-2027?쒖쫵 ?쇱씠?좎뒪 ?ъ궗, 7媛?援щ떒 ?듦낵","category":"malaysia","categoryLabel":"留먮젅?댁떆??異뺢뎄","date":"2026-05-01","content":"留먮젅?댁떆??異뺢뎄 由ш렇(MFL) 諛??꾨쭏異붿뼱異뺢뎄?곕㏏(AFL)??2026-2027?쒖쫵???욌몢怨?吏꾪뻾???대읇 ?쇱씠?좎뒪 理쒖쥌 ?ъ궗?먯꽌 7媛?援щ떒??湲고븳 ???붽굔??異⑹”?덈떎. ?ы빐遺??媛먮룆 ?먭꺽 ?붽굔(AFC Pro Diploma)???덈줈 ?ы븿?섏뿀??","author":"?쒖슱?쇰땳??誘몃뵒??,"image":null,"createdAt":"2026-07-02 23:35:17","updatedAt":"2026-07-02 23:35:17"},{"id":56,"title":"MFL쨌AFL 2026-2027?쒖쫵 ?쇱씠?좎뒪 ?ъ궗, 7媛?援щ떒 ?듦낵","category":"malaysia","categoryLabel":"留먮젅?댁떆??異뺢뎄","date":"2026-05-01","content":"留먮젅?댁떆??異뺢뎄 由ш렇(MFL) 諛??꾨쭏異붿뼱異뺢뎄?곕㏏(AFL)??2026-2027?쒖쫵???욌몢怨?吏꾪뻾???대읇 ?쇱씠?좎뒪 理쒖쥌 ?ъ궗?먯꽌 7媛?援щ떒??湲고븳 ???붽굔??異⑹”?덈떎. ?ы빐遺??媛먮룆 ?먭꺽 ?붽굔(AFC Pro Diploma)???덈줈 ?ы븿?섏뿀??","author":"?쒖슱?쇰땳??誘몃뵒??,"image":null,"createdAt":"2026-07-02 23:34:33","updatedAt":"2026-07-02 23:34:33"}],"pagination":{"page":4,"limit":10,"total":60,"totalPages":6,"hasNext":true,"hasPrev":true}}
