{"success":true,"data":[{"id":70,"title":"VERIFY1","category":"club","categoryLabel":"?대읇 ?뚯떇","date":"2026-07-02","content":"Test","author":"T","image":null,"createdAt":"2026-07-02 23:37:06","updatedAt":"2026-07-02 23:37:06"},{"id":69,"title":"VERIFY1","category":"club","categoryLabel":"?대읇 ?뚯떇","date":"2026-07-02","content":"Test verify 1 article creation via curl","author":"T","image":null,"createdAt":"2026-07-02 23:36:58","updatedAt":"2026-07-02 23:36:58"},{"id":62,"title":"TestDirectCall123","category":"club","categoryLabel":"?대읇 ?뚯떇","date":"2026-07-02","content":"Test","author":"Test","image":null,"createdAt":"2026-07-02 23:35:03","updatedAt":"2026-07-02 23:35:03"},{"id":61,"title":"DebugTest","category":"club","categoryLabel":"?대읇 ?뚯떇","date":"2026-07-02","content":"Debug test","author":"Test","image":null,"createdAt":"2026-07-02 23:34:43","updatedAt":"2026-07-02 23:34:43"},{"id":55,"title":"FinalTest","category":"club","categoryLabel":"?대읇 ?뚯떇","date":"2026-07-02","content":"Test","author":"Test","image":null,"createdAt":"2026-07-02 23:33:52","updatedAt":"2026-07-02 23:33:52"},{"id":49,"title":"?쒖슱?쇰땳?짦C, 2026-2027?쒖쫵 A1由ш렇 以鍮??뚯엯... ?쒓뎅??媛먮룆 ?좎엫 ?щ? 二쇰ぉ","category":"club","categoryLabel":"?대읇 ?뚯떇","date":"2026-07-02","content":"?쒖슱?쇰땳?짦C媛 2026-2027?쒖쫵 留먮젅?댁떆??A1 ?몃??꾨줈由ш렇瑜??욌몢怨?蹂멸꺽?곸씤 以鍮꾩뿉 ?뚯엯?쒕떎. ???쒖쫵? ?ㅻ뒗 8??媛쒕쭑?섎ŉ ?꾨━?쒖쫵 ?덈젴? 7??以묒닚遺???쒖옉???덉젙?대떎.\n\n援щ떒? ?꾩옱 李④린 ?쒖쫵???대걣 媛먮룆 ?좎엫 ?묒뾽??吏꾪뻾 以묒씠?? ?뱁엳 AFL???덈∼寃??꾩엯??AFC Pro Diploma(Pro-A) ?먭꺽 ?붽굔??異⑹”?댁빞 ?섎뒗 媛?대뜲, 洹몃룞??援щ떒??怨좎떖?댁삩 '?쒓뎅???щ졊?? ?좎엫 ?щ???異뺢뎄怨꾩쓽 ?대ぉ??吏묒쨷?섍퀬 ?덈떎.\n\n吏??2025-26?쒖쫵 ?쒖슱?쇰땳?짦C??15媛?? 以?14???뱀젏 17)濡??쒖쫵??留덉낀?? 李④린 ?쒖쫵?먮뒗 ?좎닔??蹂닿컯怨??꾩닠 泥닿퀎 ?뺣퉬瑜??듯빐 ???섏? ?깆쟻??紐⑺몴濡??섍퀬 ?덈떎.\n\n援щ떒 愿怨꾩옄??","author":"?쒖슱?쇰땳??誘몃뵒??,"image":null,"createdAt":"2026-07-02 23:33:08","updatedAt":"2026-07-02 23:33:08"},{"id":43,"title":"TestLogin","category":"club","categoryLabel":"?대읇 ?뚯떇","date":"2026-07-02","content":"Test","author":"Test","image":null,"createdAt":"2026-07-02 23:32:05","updatedAt":"2026-07-02 23:32:05"},{"id":39,"title":"TestA1","category":"malaysia","categoryLabel":"留먮젅?댁떆??異뺢뎄","date":"2026-07-02","content":"Test content A1","author":"SP Media","image":null,"createdAt":"2026-07-02 23:31:27","updatedAt":"2026-07-02 23:31:27"},{"id":38,"title":"TestA1","category":"malaysia","categoryLabel":"留먮젅?댁떆??異뺢뎄","date":"2026-07-02","content":"Test content A1","author":"SP Media","image":null,"createdAt":"2026-07-02 23:31:20","updatedAt":"2026-07-02 23:31:20"},{"id":37,"title":"Test2039","category":"club","categoryLabel":"?대읇 ?뚯떇","date":"2026-07-02","content":"Test content body","author":"Test","image":null,"createdAt":"2026-07-02 23:30:05","updatedAt":"2026-07-02 23:30:05"}],"pagination":{"page":1,"limit":10,"total":60,"totalPages":6,"hasNext":true,"hasPrev":false}}
