{"success":true,"data":[{"id":66,"title":"?몃젥媛??FC, 2026-27?쒖쫵 ?욌몢怨???媛먮룆 諛쒗몴 ?꾨컯","category":"malaysia","categoryLabel":"留먮젅?댁떆??異뺢뎄","date":"2026-06-26","content":"?몃젥媛??FC(TFC)媛 2026-2027 留먮젅?댁떆??由ш렇(M-League)瑜??욌몢怨???媛먮룆 ?좎엫??怨?諛쒗몴???덉젙?대떎. ?좎닔??怨듭떇 ?덈젴? 7??以묒닚 ?쒖옉 ?덉젙?대떎.","author":"?쒖슱?쇰땳??誘몃뵒??,"image":null,"createdAt":"2026-07-02 23:35:18","updatedAt":"2026-07-02 23:35:18"},{"id":59,"title":"?몃젥媛??FC, 2026-27?쒖쫵 ?욌몢怨???媛먮룆 諛쒗몴 ?꾨컯","category":"malaysia","categoryLabel":"留먮젅?댁떆??異뺢뎄","date":"2026-06-26","content":"?몃젥媛??FC(TFC)媛 2026-2027 留먮젅?댁떆??由ш렇(M-League)瑜??욌몢怨???媛먮룆 ?좎엫??怨?諛쒗몴???덉젙?대떎. ?좎닔??怨듭떇 ?덈젴? 7??以묒닚 ?쒖옉 ?덉젙?대떎.","author":"?쒖슱?쇰땳??誘몃뵒??,"image":null,"createdAt":"2026-07-02 23:34:34","updatedAt":"2026-07-02 23:34:34"},{"id":53,"title":"?몃젥媛??FC, 2026-27?쒖쫵 ?욌몢怨???媛먮룆 諛쒗몴 ?꾨컯","category":"malaysia","categoryLabel":"留먮젅?댁떆??異뺢뎄","date":"2026-06-26","content":"?몃젥媛??FC(TFC)媛 2026-2027 留먮젅?댁떆??由ш렇(M-League)瑜??욌몢怨???媛먮룆 ?좎엫??怨?諛쒗몴???덉젙?대씪怨?援щ떒 COO媛 諛앺삍?? ?좎닔??怨듭떇 ?덈젴? 7??以묒닚 ?쒖옉 ?덉젙?대떎.","author":"?쒖슱?쇰땳??誘몃뵒??,"image":null,"createdAt":"2026-07-02 23:33:41","updatedAt":"2026-07-02 23:33:41"},{"id":47,"title":"?몃젥媛??FC, 2026-27?쒖쫵 ?욌몢怨???媛먮룆 諛쒗몴 ?꾨컯","category":"malaysia","categoryLabel":"留먮젅?댁떆??異뺢뎄","date":"2026-06-26","content":"?몃젥媛??FC(TFC)媛 2026-2027 留먮젅?댁떆??由ш렇(M-League)瑜??욌몢怨???媛먮룆 ?좎엫??怨?諛쒗몴???덉젙?대씪怨?援щ떒 COO Mohd Syahrizan Mohd Zain??諛앺삍?? ?몃젥媛?꾨뒗 泥좎????됯?瑜??듯빐 泥좏븰怨?鍮꾩쟾??援щ떒???④린 諛??κ린 怨꾪쉷怨??쇱튂?섎뒗 ?몃Ъ???좎젙?덉쑝硫??좎닔?⑥쓽 怨듭떇 ?덈젴? 7??以묒닚 ?쒖옉 ?덉젙?대떎.","author":"?쒖슱?쇰땳??誘몃뵒??,"image":null,"createdAt":"2026-07-02 23:32:40","updatedAt":"2026-07-02 23:32:40"},{"id":65,"title":"Kedah FA, Akmal Rizal ?좎엫 媛먮룆 ?좎엫... AFC Pro ?쇱씠?좎뒪 蹂댁쑀","category":"malaysia","categoryLabel":"留먮젅?댁떆??異뺢뎄","date":"2026-06-08","content":"Kedah FA媛 2026-2027 A1 ?몃??꾨줈由ш렇 ?쒖쫵???욌몢怨?Akmal Rizal Ahmad Rakhli瑜??좎엫 媛먮룆?쇰줈 ?좎엫?덈떎. 洹몃뒗 AFC Pro ?쇱씠?좎뒪瑜?蹂댁쑀?섍퀬 ?덉쑝硫?Penang怨?Kelantan?먯꽌 肄붿묶 寃쏀뿕???덈떎.","author":"?쒖슱?쇰땳??誘몃뵒??,"image":null,"createdAt":"2026-07-02 23:35:18","updatedAt":"2026-07-02 23:35:18"},{"id":58,"title":"Kedah FA, Akmal Rizal ?좎엫 媛먮룆 ?좎엫... AFC Pro ?쇱씠?좎뒪 蹂댁쑀","category":"malaysia","categoryLabel":"留먮젅?댁떆??異뺢뎄","date":"2026-06-08","content":"Kedah FA媛 2026-2027 A1 ?몃??꾨줈由ш렇 ?쒖쫵???욌몢怨?Akmal Rizal Ahmad Rakhli瑜??좎엫 媛먮룆?쇰줈 ?좎엫?덈떎. 洹몃뒗 AFC Pro ?쇱씠?좎뒪瑜?蹂댁쑀?섍퀬 ?덉쑝硫?Penang怨?Kelantan?먯꽌 肄붿묶 寃쏀뿕???덈떎.","author":"?쒖슱?쇰땳??誘몃뵒??,"image":null,"createdAt":"2026-07-02 23:34:33","updatedAt":"2026-07-02 23:34:33"},{"id":52,"title":"Kedah FA, Akmal Rizal ?좎엫 媛먮룆 ?좎엫... AFC Pro ?쇱씠?좎뒪 蹂댁쑀","category":"malaysia","categoryLabel":"留먮젅?댁떆??異뺢뎄","date":"2026-06-08","content":"Kedah FA媛 2026-2027 A1 ?몃??꾨줈由ш렇 ?쒖쫵???욌몢怨?Akmal Rizal Ahmad Rakhli瑜??좎엫 媛먮룆?쇰줈 ?좎엫?덈떎. 洹몃뒗 AFC Pro ?쇱씠?좎뒪瑜?蹂댁쑀?섍퀬 ?덉쑝硫?Penang怨?Kelantan?먯꽌 肄붿묶 寃쏀뿕???덈떎.","author":"?쒖슱?쇰땳??誘몃뵒??,"image":null,"createdAt":"2026-07-02 23:33:41","updatedAt":"2026-07-02 23:33:41"},{"id":46,"title":"Kedah FA, Akmal Rizal ?좎엫 媛먮룆 ?좎엫... AFC Pro ?쇱씠?좎뒪 蹂댁쑀","category":"malaysia","categoryLabel":"留먮젅?댁떆??異뺢뎄","date":"2026-06-08","content":"Kedah FA媛 2026-2027 A1 ?몃??꾨줈由ш렇 ?쒖쫵???욌몢怨?Akmal Rizal Ahmad Rakhli瑜??좎엫 媛먮룆?쇰줈 ?좎엫?덈떎. 洹몃뒗 AFC Pro ?쇱씠?좎뒪瑜?蹂댁쑀?섍퀬 ?덉쑝硫?Penang怨?Kelantan?먯꽌 肄붿묶 寃쏀뿕???덈떎. Kedah FA??吏???쒖쫵 A1由ш렇 3???뱀젏 57)瑜?湲곕줉?덈떎.","author":"?쒖슱?쇰땳??誘몃뵒??,"image":null,"createdAt":"2026-07-02 23:32:18","updatedAt":"2026-07-02 23:32:18"},{"id":42,"title":"Kedah FA, Akmal Rizal ?좎엫 媛먮룆 ?좎엫... AFC Pro ?쇱씠?좎뒪 蹂댁쑀","category":"malaysia","categoryLabel":"留먮젅?댁떆??異뺢뎄","date":"2026-06-08","content":"Kedah FA媛 2026-2027 A1 ?몃??꾨줈由ш렇 ?쒖쫵???욌몢怨?Akmal Rizal Ahmad Rakhli瑜??좎엫 媛먮룆?쇰줈 ?좎엫?덈떎. 洹몃뒗 AFC Pro ?쇱씠?좎뒪瑜?蹂댁쑀?섍퀬 ?덉쑝硫?Penang怨?Kelantan?먯꽌 肄붿묶 寃쏀뿕???덈떎.\n\nKedah FA??吏???쒖쫵 A1由ш렇 3???뱀젏 57)瑜?湲곕줉?덈떎.","author":"?쒖슱?쇰땳??誘몃뵒??,"image":null,"createdAt":"2026-07-02 23:31:46","updatedAt":"2026-07-02 23:31:46"},{"id":24,"title":"JDT, 留먮젅?댁떆???덊띁由ш렇 5?고뙣 ?ъ꽦???뺣룄???쒖쫵 ?댁쁺","category":"malaysia","categoryLabel":"留먮젅?댁떆??異뺢뎄","date":"2026-05-30","content":"議고샇瑜??ㅻ０ ?곸쭚(JDT)??2025-2026 留먮젅?댁떆???덊띁由ш렇?먯꽌 ?곗듅???뺤젙吏?쇰ŉ ???5?고뙣瑜??ъ꽦?덈떎.\r\n\r\nJDT??24寃쎄린?먯꽌 23??1臾대씪??寃쎌씠濡쒖슫 湲곕줉???몄썱?쇰ŉ, 117?앹젏 10?ㅼ젏?대씪???뺣룄?곸씤 ?깆쟻?쇰줈 ?쒖쫵??留덈Т由ы뻽?? ?뱀젏 70?먯쑝濡?2?꾩???寃⑹감??17?먯뿉 ?ы뻽??\r\n\r\n??묎퀬瑜?FC??16??5臾?3?⑤줈 2?꾨? 李⑥??섎ŉ 源?먭낀 媛먮룆 遺??泥??쒖쫵???섏걯吏 ?딆? ?깆쟻??嫄곕??? ?몃젥媛??FC媛 3?? 耳??FA媛 4?꾨줈 ?쒖쫵??留덇컧?덈떎.\r\n\r\nJDT???대쾲 ?곗듅?쇰줈 AFC 梨뷀뵾?몄뒪由ш렇 ?섎━??吏꾩텧沅뚯쓣 ?뺣낫?덉쑝硫? 留먮젅?댁떆??異뺢뎄???꾩떆??臾대? ?꾩쟾???댁뼱媛寃??먮떎.\r\n\r\n[異쒖쿂: AiScore \/ FootballCritic]","author":"?쒖슱?쇰땳??誘몃뵒??,"image":"\/uploads\/news_20260702_224842_fdcd6f93.png","createdAt":"2026-06-05 00:14:33","updatedAt":"2026-07-02 22:48:47"}],"pagination":{"page":3,"limit":10,"total":60,"totalPages":6,"hasNext":true,"hasPrev":true}}
