{"success":true,"data":[{"id":4,"title":"??묎퀬瑜?II, ?쒖슱?쇰땳?ㅼ뿉 5-0 ??밟?由ш렇 ?좊몢 吏덉＜","category":"malaysia","categoryLabel":"留먮젅?댁떆??異뺢뎄","date":"2025-12-14","content":"Selangor FC II媛 ?쒖슱?쇰땳??FC瑜??곷?濡?5-0 ??뱀쓣 嫄곕몢硫?由ш렇 吏諛곕젰???ы솗?명뻽??\n\n[異쒖쿂: Sporty \/ FootballTransfers]","author":"Sporty","image":null,"createdAt":"2026-06-03 17:34:01","updatedAt":"2026-06-03 17:34:01"},{"id":5,"title":"Bunga Raya FC, ?쒖슱?쇰땳?ㅼ뿉 2-0 ?밸━????媛뺤꽭 ?낆쬆","category":"malaysia","categoryLabel":"留먮젅?댁떆??異뺢뎄","date":"2025-10-06","content":"Bunga Raya FC媛 A1 Semi-Pro League 寃쎄린?먯꽌 ?쒖슱?쇰땳??FC瑜?2-0?쇰줈 臾쇰━爾ㅻ떎.\n\n[異쒖쿂: AFL (Amateur Football League)]","author":"AFL 誘몃뵒??,"image":null,"createdAt":"2026-06-03 17:34:01","updatedAt":"2026-06-03 17:34:01"},{"id":6,"title":"?쒖슱?쇰땳?? Kedah Darul FC??2-0 ?꾩듅????踰덉㎏ ?밸━ ?좉퀬","category":"club","categoryLabel":"?대읇 ?뚯떇","date":"2025-09-28","content":"?쒖슱?쇰땳??FC媛 ??寃쎄린?먯꽌 Kedah Darul FC瑜?2-0?쇰줈 寃⑺뙆?섎ŉ ?쒖쫵 ??踰덉㎏ ?밸━瑜?湲곕줉?덈떎.\n\n[異쒖쿂: FootballTransfers]","author":"?쒖슱?쇰땳??誘몃뵒??,"image":null,"createdAt":"2026-06-03 17:34:01","updatedAt":"2026-06-03 17:34:01"},{"id":7,"title":"ATM, ?쒖슱?쇰땳?ㅼ뿉 3-1 ??쟾?밟??꾨컲 吏묒쨷???욎꽭??,"category":"malaysia","categoryLabel":"留먮젅?댁떆??異뺢뎄","date":"2025-09-21","content":"Armed Forces FC(ATM)媛 ?쒖슱?쇰땳??FC??3-1 ??쟾?뱀쓣 嫄곕???\n\n[異쒖쿂: FootballTransfers]","author":"AFL 誘몃뵒??,"image":null,"createdAt":"2026-06-03 17:34:01","updatedAt":"2026-06-03 17:34:01"},{"id":8,"title":"?쒖슱?쇰땳?? Manjung City??1-0 ?밟?A1 由ш렇 泥????좉퀬!","category":"club","categoryLabel":"?대읇 ?뚯떇","date":"2025-09-13","content":"?쒖슱?쇰땳?ㅺ? A1 Semi-Pro League 泥??뱀쓣 ?좉퀬?덈떎. ?≪쁺二쇱쓽 寃곗듅怨⑤줈 1-0 ?밸━.\n\n[異쒖쿂: Stadium Astro]","author":"Stadium Astro","image":null,"createdAt":"2026-06-03 17:34:01","updatedAt":"2026-06-03 17:34:01"},{"id":9,"title":"?쒖슱?쇰땳?? 媛쒕쭑?꾩꽌 Malaysian University??0-3 ?⑤같","category":"club","categoryLabel":"?대읇 ?뚯떇","date":"2025-08-24","content":"?쒖슱?쇰땳??FC媛 A1 Semi-Pro League ?곕퇃?꾩뿉??Malaysian University??0-3?쇰줈 ?⑤같?덈떎.\n\n[異쒖쿂: AFL \/ Forza Football]","author":"?쒖슱?쇰땳??誘몃뵒??,"image":null,"createdAt":"2026-06-03 17:34:01","updatedAt":"2026-06-03 17:34:01"},{"id":10,"title":"?쒖슱?쇰땳?? 2025-26?쒖쫵 理쒖쥌 ?좎닔??諛쒗몴??18紐??뺤젙","category":"club","categoryLabel":"?대읇 ?뚯떇","date":"2025-08-16","content":"?쒖슱?쇰땳??FC媛 2025-26 A1 Semi-Pro League???섏꽕 理쒖쥌 ?좎닔??18紐낆쓣 諛쒗몴?덈떎.\n\n[異쒖쿂: Wikipedia - Seoul Phoenix FC]","author":"?쒖슱?쇰땳??誘몃뵒??,"image":null,"createdAt":"2026-06-03 17:34:01","updatedAt":"2026-06-03 17:34:01"},{"id":11,"title":"FC ?쒖슱?쇰땳?? A1 ?몃??꾨줈 由ш렇 李멸? 理쒖쥌 ?뱀씤","category":"club","categoryLabel":"?대읇 ?뚯떇","date":"2025-06-16","content":"?쒓뎅 異뺢뎄??FC ?쒖슱?쇰땳?ㅺ? A1 Semi-Pro League 李멸?瑜?理쒖쥌 ?뱀씤諛쏆븯??\r\n\r\n[異쒖쿂: New Straits Times]","author":"New Straits Times","image":"\/uploads\/news_20260702_224520_e001a83e.jpg","createdAt":"2026-06-03 17:34:01","updatedAt":"2026-07-02 22:45:24"},{"id":12,"title":"\"異뺢뎄??吏덈” 肄붾━??" ?щ떎! K4 異쒖떊 ?쒖슱?쇰땳?? 留먮젅?댁떆??2遺由ш렇 李멸?","category":"club","categoryLabel":"?대읇 ?뚯떇","date":"2025-05-15","content":"K4由ш렇 異쒖떊 ?쒖슱?쇰땳?ㅺ? 留먮젅?댁떆??2遺由ш렇 A1 Semi-Pro League??李멸??쒕떎.\n\n[異쒖쿂: ?ㅽ룷痢좎“??","author":"?ㅽ룷痢좎“??,"image":null,"createdAt":"2026-06-03 17:34:01","updatedAt":"2026-06-03 17:34:01"},{"id":13,"title":"?쒓뎅 理쒖큹 留먮젅?댁떆??由ш렇 吏꾩텧??異뺢뎄?? \"FC ?쒖슱 ?쇰땳??" 李쎈떒","category":"club","categoryLabel":"?대읇 ?뚯떇","date":"2025-04-12","content":"?쒖슱???곌퀬濡??섎뒗 ?꾨줈 異뺢뎄??FC ?쒖슱 ?쇰땳?ㅺ? 怨듭떇 李쎈떒???좎뼵?덈떎.\n\n[異쒖쿂: SG-HATT, 2025.04.12]","author":"SG-HATT","image":null,"createdAt":"2026-06-03 17:34:01","updatedAt":"2026-06-03 17:34:01"}],"pagination":{"page":6,"limit":10,"total":60,"totalPages":6,"hasNext":false,"hasPrev":true}}
